<?xml version="1.0" encoding="UTF-8" standalone="no"?>
<svg
   xmlns:dc="http://purl.org/dc/elements/1.1/"
   xmlns:cc="http://creativecommons.org/ns#"
   xmlns:rdf="http://www.w3.org/1999/02/22-rdf-syntax-ns#"
   xmlns:svg="http://www.w3.org/2000/svg"
   xmlns="http://www.w3.org/2000/svg"
   xmlns:xlink="http://www.w3.org/1999/xlink"
   xmlns:sodipodi="http://sodipodi.sourceforge.net/DTD/sodipodi-0.dtd"
   xmlns:inkscape="http://www.inkscape.org/namespaces/inkscape"
   width="660.77618pt"
   height="733.33984pt"
   viewBox="0 0 660.7762 733.33986"
   version="1.2"
   id="svg870"
   sodipodi:docname="logo.svg"
   inkscape:version="0.92.3 (2405546, 2018-03-11)">
  <metadata
     id="metadata874">
    <rdf:RDF>
      <cc:Work
         rdf:about="">
        <dc:format>image/svg+xml</dc:format>
        <dc:type
           rdf:resource="http://purl.org/dc/dcmitype/StillImage" />
        <dc:title></dc:title>
      </cc:Work>
    </rdf:RDF>
  </metadata>
  <sodipodi:namedview
     pagecolor="#ffffff"
     bordercolor="#666666"
     borderopacity="1"
     objecttolerance="10"
     gridtolerance="10"
     guidetolerance="10"
     inkscape:pageopacity="0"
     inkscape:pageshadow="2"
     inkscape:window-width="1331"
     inkscape:window-height="713"
     id="namedview872"
     showgrid="false"
     fit-margin-top="0"
     fit-margin-left="0"
     fit-margin-right="0"
     fit-margin-bottom="0"
     inkscape:zoom="0.26561053"
     inkscape:cx="158.28479"
     inkscape:cy="423.49304"
     inkscape:window-x="35"
     inkscape:window-y="927"
     inkscape:window-maximized="1"
     inkscape:current-layer="svg870" />
  <defs
     id="defs163">
    <g
       id="g161">
      <symbol
         overflow="visible"
         id="glyph0-0"
         style="overflow:visible">
        <path
           style="stroke:none"
           d="M 1.859375,0 H 16.71875 V -18.578125 H 1.859375 Z M 3.71875,-1.859375 V -16.71875 h 11.140625 v 14.859375 z m 0,0"
           id="path2"
           inkscape:connector-curvature="0" />
      </symbol>
      <symbol
         overflow="visible"
         id="glyph0-1"
         style="overflow:visible">
        <path
           style="stroke:none"
           d="m 12.5625,-34.4375 -2.125,5.078125 1.859375,1.046875 3.015625,-4.53125 z M 21.8125,0 V -3.15625 H 6.5 v -8.921875 h 13.078125 v -3.15625 H 6.5 V -23.59375 H 21.4375 V -26.75 H 2.96875 V 0 Z m 0,0"
           id="path5"
           inkscape:connector-curvature="0" />
      </symbol>
      <symbol
         overflow="visible"
         id="glyph0-2"
         style="overflow:visible">
        <path
           style="stroke:none"
           d="m 14.234375,-2.1875 -6.6875,-3.203125 -2.15625,-7.984375 2.296875,-7.953125 6.546875,-3.1875 5.234375,1.734375 2.484375,4.65625 3.171875,-1.609375 -3.3125,-5.453125 -7.578125,-2.375 -9.4375,4.15625 -3.203125,10.0625 3.203125,10.03125 9.4375,4.171875 7.578125,-2.421875 3.234375,-5.28125 -3.09375,-1.703125 -2.75,4.609375 z m 0,0"
           id="path8"
           inkscape:connector-curvature="0" />
      </symbol>
      <symbol
         overflow="visible"
         id="glyph0-3"
         style="overflow:visible">
        <path
           style="stroke:none"
           d="m 14.5625,-27.5625 -9.625,4.15625 -3.34375,10.0625 3.34375,10.03125 9.625,4.171875 9.625,-4.171875 3.34375,-10.03125 -3.34375,-10.0625 z m 0,25.375 -6.875,-3.203125 -2.296875,-7.984375 2.453125,-7.953125 6.71875,-3.1875 6.734375,3.1875 L 23.75,-13.375 21.296875,-5.390625 Z m 0,0"
           id="path11"
           inkscape:connector-curvature="0" />
      </symbol>
      <symbol
         overflow="visible"
         id="glyph0-4"
         style="overflow:visible">
        <path
           style="stroke:none"
           d="M 21.46875,0 V -3.15625 H 6.5 V -26.75 H 2.96875 V 0 Z m 0,0"
           id="path14"
           inkscape:connector-curvature="0" />
      </symbol>
      <symbol
         overflow="visible"
         id="glyph0-5"
         style="overflow:visible">
        <path
           style="stroke:none"
           d="M 21.8125,0 V -3.15625 H 6.5 v -8.921875 h 13.078125 v -3.15625 H 6.5 V -23.59375 H 21.4375 V -26.75 H 2.96875 V 0 Z m 0,0"
           id="path17"
           inkscape:connector-curvature="0" />
      </symbol>
      <symbol
         overflow="visible"
         id="glyph0-6"
         style="overflow:visible">
        <path
           style="stroke:none"
           d=""
           id="path20"
           inkscape:connector-curvature="0" />
      </symbol>
      <symbol
         overflow="visible"
         id="glyph0-7"
         style="overflow:visible">
        <path
           style="stroke:none"
           d="m 5.171875,-8.734375 -3.09375,1.34375 2.828125,5.90625 L 13,0.859375 19.84375,-1.109375 23.03125,-7.25 21.171875,-12.03125 16.34375,-14.5625 8.65625,-16.875 6.765625,-18.125 6.125,-20.0625 l 1.96875,-3.421875 4.0625,-1.03125 4.59375,1.484375 1.828125,4.125 3.125,-1.234375 L 19.25,-25.53125 12,-27.5625 l -6.390625,1.921875 -2.96875,5.796875 0.96875,3.640625 4.640625,2.859375 7.796875,2.234375 2.34375,1.640625 0.78125,2.40625 L 17.46875,-3.53125 12.8125,-2.1875 7.5,-3.828125 Z m 0,0"
           id="path23"
           inkscape:connector-curvature="0" />
      </symbol>
      <symbol
         overflow="visible"
         id="glyph0-8"
         style="overflow:visible">
        <path
           style="stroke:none"
           d="m 23.859375,-26.75 h -3.5 v 15.71875 L 18.875,-4.71875 13.484375,-2.375 8.03125,-4.71875 6.5,-10.96875 V -26.75 H 2.9375 v 15.53125 l 2.375,8.6875 8.140625,3.390625 8.09375,-3.390625 2.3125,-8.65625 z m 0,0"
           id="path26"
           inkscape:connector-curvature="0" />
      </symbol>
      <symbol
         overflow="visible"
         id="glyph0-9"
         style="overflow:visible">
        <path
           style="stroke:none"
           d="M 2.96875,0 H 6.5 v -10.78125 h 6.171875 l 7.609375,-2 2.5625,-6.203125 -3.1875,-6.359375 -7.25,-1.40625 H 2.96875 Z M 6.5,-13.9375 v -9.875 h 6.171875 l 4.5625,1.03125 1.90625,3.90625 -1.609375,3.71875 -4.78125,1.21875 z m 0,0"
           id="path29"
           inkscape:connector-curvature="0" />
      </symbol>
      <symbol
         overflow="visible"
         id="glyph0-10"
         style="overflow:visible">
        <path
           style="stroke:none"
           d="m 6.5,-13.9375 v -9.875 h 6.171875 l 4.5625,1.03125 1.90625,3.90625 -1.609375,3.71875 L 12.75,-13.9375 Z M 2.96875,0 H 6.5 v -10.78125 h 5.984375 l 1.75,-0.4375 6.46875,11.515625 3.265625,-1.703125 -6.171875,-10.75 2.484375,-0.625 2.5625,-6.203125 -3.1875,-6.359375 -7.25,-1.40625 h -9.4375 z m 0,0"
           id="path32"
           inkscape:connector-curvature="0" />
      </symbol>
      <symbol
         overflow="visible"
         id="glyph0-11"
         style="overflow:visible">
        <path
           style="stroke:none"
           d="M 6.5,0 V -26.75 H 2.96875 V 0 Z m 0,0"
           id="path35"
           inkscape:connector-curvature="0" />
      </symbol>
      <symbol
         overflow="visible"
         id="glyph0-12"
         style="overflow:visible">
        <path
           style="stroke:none"
           d="m 2.96875,0 h 8.890625 L 21.59375,-3.375 24.828125,-13.453125 21.40625,-23.515625 11.375,-26.75 H 2.96875 Z M 6.5,-3.125 v -20.46875 h 4.875 l 7.09375,2.078125 2.640625,8.03125 -2.34375,7.953125 -7.28125,2.40625 z m 0,0"
           id="path38"
           inkscape:connector-curvature="0" />
      </symbol>
      <symbol
         overflow="visible"
         id="glyph0-13"
         style="overflow:visible">
        <path
           style="stroke:none"
           d="M 6.203125,-5.90625 6.421875,-6.5 H 18.46875 L 18.734375,-5.796875 21,0.296875 24.375,-0.859375 14.375,-26.75 h -3.59375 l -10.078125,25.859375 3.15625,1.1875 z m 11.109375,-3.75 H 7.609375 L 12.5625,-22.703125 Z m 0,0"
           id="path41"
           inkscape:connector-curvature="0" />
      </symbol>
      <symbol
         overflow="visible"
         id="glyph0-14"
         style="overflow:visible">
        <path
           style="stroke:none"
           d="M 13.265625,0 V -23.59375 H 22.25 V -26.75 H 0.75 v 3.15625 H 9.734375 V 0 Z m 0,0"
           id="path44"
           inkscape:connector-curvature="0" />
      </symbol>
      <symbol
         overflow="visible"
         id="glyph0-15"
         style="overflow:visible">
        <path
           style="stroke:none"
           d="M 3.859375,-26.828125 2.75,-25.71875 v 1.5625 l 1.109375,1.125 H 4.6875 l -0.5625,2.671875 -1.59375,1.265625 1.03125,1.328125 2.203125,-1.921875 0.78125,-3.34375 v -2.6875 l -1.125,-1.109375 z m 0,0"
           id="path47"
           inkscape:connector-curvature="0" />
      </symbol>
      <symbol
         overflow="visible"
         id="glyph0-16"
         style="overflow:visible">
        <path
           style="stroke:none"
           d="M 6.5,0 V -22.21875 L 14.453125,0 h 3.15625 L 25.5625,-22.21875 V 0 h 3.53125 v -26.75 h -4.875 L 16.09375,-4.5625 8.140625,-26.75 H 2.96875 V 0 Z m 0,0"
           id="path50"
           inkscape:connector-curvature="0" />
      </symbol>
      <symbol
         overflow="visible"
         id="glyph0-17"
         style="overflow:visible">
        <path
           style="stroke:none"
           d="M 25.96875,-3.96875 V -13.5625 H 14.671875 v 3.125 h 7.875 l 0.04687,4.796875 -7.515625,3.453125 -7.125,-3.234375 -2.5625,-7.953125 2.40625,-7.953125 6.734375,-3.1875 4.828125,1.296875 2.890625,4.671875 2.984375,-1.859375 -3.125,-5.078125 -7.5,-2.078125 -9.625,4.15625 -3.390625,10.0625 3.578125,10.03125 9.796875,4.171875 z m 0,0"
           id="path53"
           inkscape:connector-curvature="0" />
      </symbol>
      <symbol
         overflow="visible"
         id="glyph1-0"
         style="overflow:visible">
        <path
           style="stroke:none"
           d="m 1.546875,0 h 12.40625 V -15.5 H 1.546875 Z M 3.09375,-1.546875 v -12.40625 h 9.3125 v 12.40625 z m 0,0"
           id="path56"
           inkscape:connector-curvature="0" />
      </symbol>
      <symbol
         overflow="visible"
         id="glyph1-1"
         style="overflow:visible">
        <path
           style="stroke:none"
           d="m 11.0625,0 v -19.6875 h 7.5 v -2.625 H 0.625 v 2.625 h 7.5 V 0 Z m 0,0"
           id="path59"
           inkscape:connector-curvature="0" />
      </symbol>
      <symbol
         overflow="visible"
         id="glyph1-2"
         style="overflow:visible">
        <path
           style="stroke:none"
           d="m 11.9375,0 v -9.390625 l 7.84375,-11.65625 -2.390625,-1.515625 -6.78125,10.6875 -6.921875,-10.6875 -2.546875,1.515625 7.84375,11.65625 V 0 Z m 0,0"
           id="path62"
           inkscape:connector-curvature="0" />
      </symbol>
      <symbol
         overflow="visible"
         id="glyph1-3"
         style="overflow:visible">
        <path
           style="stroke:none"
           d="m 2.484375,0 h 2.9375 v -8.984375 h 5.15625 l 6.34375,-1.671875 2.140625,-5.1875 -2.65625,-5.296875 -6.046875,-1.171875 h -7.875 z m 2.9375,-11.625 v -8.25 h 5.15625 l 3.8125,0.875 1.578125,3.25 -1.34375,3.109375 -3.984375,1.015625 z m 0,0"
           id="path65"
           inkscape:connector-curvature="0" />
      </symbol>
      <symbol
         overflow="visible"
         id="glyph1-4"
         style="overflow:visible">
        <path
           style="stroke:none"
           d="M 12.15625,-23 4.125,-19.53125 1.328125,-11.125 4.125,-2.765625 12.15625,0.71875 20.1875,-2.765625 22.96875,-11.125 20.1875,-19.53125 Z m 0,21.171875 L 6.421875,-4.5 4.5,-11.15625 l 2.046875,-6.640625 5.609375,-2.65625 5.609375,2.65625 L 19.8125,-11.15625 17.765625,-4.5 Z m 0,0"
           id="path68"
           inkscape:connector-curvature="0" />
      </symbol>
      <symbol
         overflow="visible"
         id="glyph1-5"
         style="overflow:visible">
        <path
           style="stroke:none"
           d=""
           id="path71"
           inkscape:connector-curvature="0" />
      </symbol>
      <symbol
         overflow="visible"
         id="glyph1-6"
         style="overflow:visible">
        <path
           style="stroke:none"
           d="m 4.3125,-10.328125 0.984375,-1.078125 v -1.578125 l -1.015625,-1.125 -1.421875,-0.03125 -1,1.15625 v 1.578125 l 1,1.078125 z m 0,8.21875 0.984375,-1.078125 v -1.59375 l -1.015625,-1.109375 -1.421875,-0.03125 -1,1.140625 v 1.59375 l 1,1.078125 z m 0,0"
           id="path74"
           inkscape:connector-curvature="0" />
      </symbol>
      <symbol
         overflow="visible"
         id="glyph1-7"
         style="overflow:visible">
        <path
           style="stroke:none"
           d="M 5.421875,0 V -18.53125 L 12.0625,0 h 2.625 l 6.640625,-18.53125 V 0 h 2.9375 V -22.3125 H 20.21875 l -6.796875,18.5 -6.640625,-18.5 H 2.484375 V 0 Z m 0,0"
           id="path77"
           inkscape:connector-curvature="0" />
      </symbol>
      <symbol
         overflow="visible"
         id="glyph1-8"
         style="overflow:visible">
        <path
           style="stroke:none"
           d="m 5.171875,-4.921875 0.1875,-0.5 H 15.40625 L 15.625,-4.84375 17.515625,0.25 20.328125,-0.71875 12,-22.3125 H 8.984375 L 0.59375,-0.75 l 2.625,1 z m 9.28125,-3.140625 h -8.09375 l 4.125,-10.875 z m 0,0"
           id="path80"
           inkscape:connector-curvature="0" />
      </symbol>
      <symbol
         overflow="visible"
         id="glyph1-9"
         style="overflow:visible">
        <path
           style="stroke:none"
           d="M 5.296875,0 V -17.546875 L 16.953125,0 H 19.96875 V -22.3125 H 17.140625 V -4.78125 L 5.484375,-22.3125 h -3 V 0 Z m 0,0"
           id="path83"
           inkscape:connector-curvature="0" />
      </symbol>
      <symbol
         overflow="visible"
         id="glyph1-10"
         style="overflow:visible">
        <path
           style="stroke:none"
           d="m 5.421875,0 v -22.3125 h -2.9375 V 0 Z m 0,0"
           id="path86"
           inkscape:connector-curvature="0" />
      </symbol>
      <symbol
         overflow="visible"
         id="glyph1-11"
         style="overflow:visible">
        <path
           style="stroke:none"
           d="M 5.421875,0 V -10.078125 H 15.84375 v -2.625 H 5.421875 V -19.6875 h 11.96875 v -2.625 H 2.484375 V 0 Z m 0,0"
           id="path89"
           inkscape:connector-curvature="0" />
      </symbol>
      <symbol
         overflow="visible"
         id="glyph1-12"
         style="overflow:visible">
        <path
           style="stroke:none"
           d="m 21.671875,-3.3125 v -8 H 12.25 v 2.59375 h 6.5625 l 0.03125,4 -6.25,2.890625 L 6.640625,-4.53125 4.5,-11.15625 l 2.015625,-6.640625 5.609375,-2.65625 4.03125,1.078125 2.40625,3.90625 2.484375,-1.546875 -2.609375,-4.25 L 12.1875,-23 4.15625,-19.53125 1.328125,-11.125 4.3125,-2.765625 12.5,0.71875 Z m 0,0"
           id="path92"
           inkscape:connector-curvature="0" />
      </symbol>
      <symbol
         overflow="visible"
         id="glyph1-13"
         style="overflow:visible">
        <path
           style="stroke:none"
           d="m 5.421875,-11.625 v -8.25 h 5.15625 l 3.8125,0.875 1.578125,3.25 -1.34375,3.109375 -3.984375,1.015625 z M 2.484375,0 h 2.9375 v -8.984375 h 5 L 11.875,-9.359375 17.265625,0.25 20,-1.171875 l -5.15625,-8.96875 2.078125,-0.515625 2.140625,-5.1875 -2.65625,-5.296875 -6.046875,-1.171875 h -7.875 z m 0,0"
           id="path95"
           inkscape:connector-curvature="0" />
      </symbol>
      <symbol
         overflow="visible"
         id="glyph1-14"
         style="overflow:visible">
        <path
           style="stroke:none"
           d="M 18.203125,0 V -2.640625 H 5.421875 v -7.4375 H 16.34375 v -2.625 H 5.421875 V -19.6875 h 12.46875 v -2.625 H 2.484375 V 0 Z m 0,0"
           id="path98"
           inkscape:connector-curvature="0" />
      </symbol>
      <symbol
         overflow="visible"
         id="glyph1-15"
         style="overflow:visible">
        <path
           style="stroke:none"
           d="m 4.3125,-7.28125 -2.578125,1.109375 2.359375,4.9375 6.75,1.953125 5.703125,-1.65625 2.671875,-5.109375 -1.546875,-4 -4.03125,-2.109375 -6.421875,-1.921875 -1.578125,-1.046875 -0.53125,-1.609375 1.65625,-2.859375 3.375,-0.859375 3.84375,1.234375 1.515625,3.4375 2.609375,-1.015625 -2.046875,-4.5 L 10.015625,-23 4.6875,-21.390625 2.203125,-16.546875 3,-13.515625 6.875,-11.125 13.390625,-9.265625 15.34375,-7.90625 16,-5.890625 14.5625,-2.9375 10.6875,-1.828125 6.265625,-3.1875 Z m 0,0"
           id="path101"
           inkscape:connector-curvature="0" />
      </symbol>
      <symbol
         overflow="visible"
         id="glyph1-16"
         style="overflow:visible">
        <path
           style="stroke:none"
           d="M 5.421875,0 V -7.375 L 8.5,-10.609375 16.703125,0.25 l 2.453125,-1.828125 -8.640625,-11.09375 7.75,-8.03125 L 16.25,-22.5625 5.421875,-10.90625 V -22.3125 h -2.9375 V 0 Z m 0,0"
           id="path104"
           inkscape:connector-curvature="0" />
      </symbol>
      <symbol
         overflow="visible"
         id="glyph2-0"
         style="overflow:visible">
        <path
           style="stroke:none"
           d="M 22.625,-15.25 21.765625,-16.125 14.5625,-8.921875 7.375,-16.125 l -0.859375,0.875 7.1875,7.1875 -7.1875,7.1875 L 7.375,0 14.5625,-7.1875 21.765625,0 22.625,-0.875 15.4375,-8.0625 Z m 5.578125,-6.453125 H 0.9375 v 27.28125 h 27.265625 z m -26.03125,1.25 H 26.96875 V 4.34375 H 2.171875 Z m 0,0"
           id="path107"
           inkscape:connector-curvature="0" />
      </symbol>
      <symbol
         overflow="visible"
         id="glyph2-1"
         style="overflow:visible">
        <path
           style="stroke:none"
           d="m 0.46875,-16.125 v 3.421875 h 4.953125 v 8.359375 c 0,3.71875 2.015625,4.5 4.96875,4.5 1.859375,0 2.625,-0.3125 2.625,-0.3125 v -3.25 c 0,0 -0.453125,0.15625 -1.390625,0.15625 -1.390625,0 -1.859375,-0.46875 -1.859375,-1.859375 v -7.59375 H 15.03125 V -16.125 Z m 0,0"
           id="path110"
           inkscape:connector-curvature="0" />
      </symbol>
      <symbol
         overflow="visible"
         id="glyph2-2"
         style="overflow:visible">
        <path
           style="stroke:none"
           d="M 16.734375,-16.125 H 12.09375 L 8.890625,-5.484375 4.953125,-16.125 H 0.3125 L 6.8125,0 C 6.203125,1.484375 5.578125,2.328125 4.03125,2.328125 c -1.09375,0 -2.015625,-0.3125 -2.015625,-0.3125 v 3.5625 c 0,0 1.234375,0.46875 2.796875,0.46875 3.25,0 4.921875,-1.890625 6.1875,-5.578125 z m 0,0"
           id="path113"
           inkscape:connector-curvature="0" />
      </symbol>
      <symbol
         overflow="visible"
         id="glyph2-3"
         style="overflow:visible">
        <path
           style="stroke:none"
           d="m 0.78125,5.578125 h 4.328125 v -7.28125 h 0.15625 c 0,0 1.40625,2.171875 4.8125,2.171875 4.640625,0 6.96875,-4.03125 6.96875,-8.53125 0,-4.5 -2.328125,-8.515625 -6.96875,-8.515625 -3.5625,0 -4.96875,2.625 -4.96875,2.625 H 4.953125 V -16.125 H 0.78125 Z M 4.953125,-8.0625 c 0,-2.90625 1.25,-5.265625 3.875,-5.265625 2.640625,0 3.875,2.359375 3.875,5.265625 0,2.921875 -1.234375,5.265625 -3.875,5.265625 -2.625,0 -3.875,-2.34375 -3.875,-5.265625 z m 0,0"
           id="path116"
           inkscape:connector-curvature="0" />
      </symbol>
      <symbol
         overflow="visible"
         id="glyph2-4"
         style="overflow:visible">
        <path
           style="stroke:none"
           d="m 4.953125,-8.0625 c 0,-2.90625 1.125,-5.265625 3.875,-5.265625 2.765625,0 3.875,2.359375 3.875,5.265625 0,2.921875 -1.109375,5.265625 -3.875,5.265625 -2.75,0 -3.875,-2.34375 -3.875,-5.265625 z m -4.328125,0 c 0,4.71875 2.90625,8.53125 8.203125,8.53125 5.3125,0 8.21875,-3.8125 8.21875,-8.53125 0,-4.703125 -2.90625,-8.515625 -8.21875,-8.515625 -5.296875,0 -8.203125,3.8125 -8.203125,8.515625 z m 0,0"
           id="path119"
           inkscape:connector-curvature="0" />
      </symbol>
      <symbol
         overflow="visible"
         id="glyph2-5"
         style="overflow:visible">
        <path
           style="stroke:none"
           d=""
           id="path122"
           inkscape:connector-curvature="0" />
      </symbol>
      <symbol
         overflow="visible"
         id="glyph2-6"
         style="overflow:visible">
        <path
           style="stroke:none"
           d="m 0.625,-8.0625 c 0,4.71875 2.78125,8.53125 8.0625,8.53125 7.125,0 7.59375,-6.359375 7.59375,-6.359375 H 11.9375 c 0,0 -0.15625,3.09375 -3.25,3.09375 -2.765625,0 -3.734375,-2.34375 -3.734375,-5.265625 0,-2.90625 0.96875,-5.265625 3.734375,-5.265625 3.09375,0 3.25,3.09375 3.25,3.09375 h 4.34375 c 0,0 -0.46875,-6.34375 -7.59375,-6.34375 -5.28125,0 -8.0625,3.8125 -8.0625,8.515625 z m 0,0"
           id="path125"
           inkscape:connector-curvature="0" />
      </symbol>
      <symbol
         overflow="visible"
         id="glyph2-7"
         style="overflow:visible">
        <path
           style="stroke:none"
           d="M 11.15625,0 H 15.5 v -16.125 h -4.34375 v 6.359375 H 5.109375 V -16.125 H 0.78125 V 0 h 4.328125 v -6.359375 h 6.046875 z m 0,0"
           id="path128"
           inkscape:connector-curvature="0" />
      </symbol>
      <symbol
         overflow="visible"
         id="glyph2-8"
         style="overflow:visible">
        <path
           style="stroke:none"
           d="M 5.109375,-16.125 H 0.78125 V 0 H 5.109375 Z M 0.46875,-19.6875 c 0,1.359375 1.109375,2.484375 2.46875,2.484375 1.375,0 2.484375,-1.125 2.484375,-2.484375 0,-1.359375 -1.109375,-2.484375 -2.484375,-2.484375 -1.359375,0 -2.46875,1.125 -2.46875,2.484375 z m 0,0"
           id="path131"
           inkscape:connector-curvature="0" />
      </symbol>
      <symbol
         overflow="visible"
         id="glyph2-9"
         style="overflow:visible">
        <path
           style="stroke:none"
           d="m 9.140625,-16.125 v -0.453125 c 0,-1.40625 0.625,-2.015625 2.015625,-2.015625 1.25,0 2.484375,0.296875 2.484375,0.296875 v -3.40625 c 0,0 -1.078125,-0.46875 -3.09375,-0.46875 -3.875,0 -5.734375,1.859375 -5.734375,5.59375 V -16.125 H 0.46875 v 3.421875 H 4.8125 V 0 h 4.328125 v -12.703125 h 4.5 V -16.125 Z m 0,0"
           id="path134"
           inkscape:connector-curvature="0" />
      </symbol>
      <symbol
         overflow="visible"
         id="glyph2-10"
         style="overflow:visible">
        <path
           style="stroke:none"
           d="M 0.78125,0 H 5.109375 V -9.609375 H 8.375 c 4.484375,0 5.734375,-1.078125 5.734375,-4.65625 V -16.125 h -4.34375 v 1.40625 c 0,2.015625 -0.625,2.015625 -2.484375,2.015625 H 5.109375 V -16.125 H 0.78125 Z m 0,0"
           id="path137"
           inkscape:connector-curvature="0" />
      </symbol>
      <symbol
         overflow="visible"
         id="glyph2-11"
         style="overflow:visible">
        <path
           style="stroke:none"
           d="m 0.625,-8.0625 c 0,4.71875 2.625,8.53125 8.0625,8.53125 6.65625,0 7.59375,-5.734375 7.59375,-5.734375 H 11.9375 c 0,0 -0.46875,2.46875 -3.109375,2.46875 -2.59375,0 -3.65625,-1.859375 -3.84375,-4.328125 H 16.40625 c 0,0 0.03125,-0.5625 0.03125,-0.9375 0,-4.703125 -2.453125,-8.515625 -7.75,-8.515625 -5.3125,0 -8.0625,3.8125 -8.0625,8.515625 z m 8.0625,-5.265625 c 2.125,0 3,1.421875 3.28125,3.40625 H 5.109375 c 0.375,-1.984375 1.4375,-3.40625 3.578125,-3.40625 z m 0,0"
           id="path140"
           inkscape:connector-curvature="0" />
      </symbol>
      <symbol
         overflow="visible"
         id="glyph2-12"
         style="overflow:visible">
        <path
           style="stroke:none"
           d="m 0.625,-5.265625 c 0,1.859375 1.234375,5.734375 7.59375,5.734375 4.640625,0 7.28125,-2.328125 7.28125,-5.421875 C 15.5,-11 5.265625,-8.984375 5.265625,-11.78125 c 0,-0.984375 0.9375,-1.859375 2.640625,-1.859375 2.9375,0 2.9375,2.171875 2.9375,2.171875 h 4.1875 c 0,-1.546875 -0.921875,-5.109375 -7.125,-5.109375 -4.34375,0 -6.96875,2.3125 -6.96875,5.109375 0,6.203125 10.21875,3.5625 10.21875,6.96875 0,0.9375 -0.609375,2.015625 -2.9375,2.015625 -3.40625,0 -3.40625,-2.78125 -3.40625,-2.78125 z m 0,0"
           id="path143"
           inkscape:connector-curvature="0" />
      </symbol>
      <symbol
         overflow="visible"
         id="glyph2-13"
         style="overflow:visible">
        <path
           style="stroke:none"
           d="m 1.234375,-2.171875 c 0,1.359375 1.125,2.484375 2.484375,2.484375 1.359375,0 2.484375,-1.125 2.484375,-2.484375 0,-1.359375 -1.125,-2.484375 -2.484375,-2.484375 -1.359375,0 -2.484375,1.125 -2.484375,2.484375 z m 0,-11.46875 c 0,1.359375 1.125,2.484375 2.484375,2.484375 1.359375,0 2.484375,-1.125 2.484375,-2.484375 0,-1.359375 -1.125,-2.484375 -2.484375,-2.484375 -1.359375,0 -2.484375,1.125 -2.484375,2.484375 z m 0,0"
           id="path146"
           inkscape:connector-curvature="0" />
      </symbol>
      <symbol
         overflow="visible"
         id="glyph2-14"
         style="overflow:visible">
        <path
           style="stroke:none"
           d="m 15.8125,-16.125 h -4.34375 v 8.375 c 0,3.25 -1.234375,4.65625 -3.5625,4.65625 -2.015625,0 -2.796875,-1.25 -2.796875,-4.03125 v -9 H 0.78125 v 9.921875 c 0,3.71875 1.234375,6.671875 5.734375,6.671875 3.5625,0 4.953125,-3.109375 4.953125,-3.109375 H 11.625 V 0 h 4.1875 z m 0,0"
           id="path149"
           inkscape:connector-curvature="0" />
      </symbol>
      <symbol
         overflow="visible"
         id="glyph2-15"
         style="overflow:visible">
        <path
           style="stroke:none"
           d="M 0.78125,-12.703125 H 10.6875 L 5.265625,-7.4375 v 2.484375 h 1.25 c 4.328125,0 5.421875,1.703125 5.421875,4.015625 0,2.171875 -1.28125,3.734375 -3.40625,3.734375 -2.796875,0 -3.875,-1.859375 -3.875,-4.03125 H 0.3125 c 0,3.71875 2.171875,7.28125 8.21875,7.28125 5.265625,0 7.75,-3.5625 7.75,-7.125 0,-6.515625 -5.890625,-6.671875 -5.890625,-6.671875 l 5.265625,-4.953125 V -16.125 h -14.875 z m 0,0"
           id="path152"
           inkscape:connector-curvature="0" />
      </symbol>
      <symbol
         overflow="visible"
         id="glyph2-16"
         style="overflow:visible">
        <path
           style="stroke:none"
           d="m 16.890625,-16.125 h -4.1875 v 2.171875 H 12.5625 c 0,0 -1.40625,-2.625 -4.96875,-2.625 -4.65625,0 -6.96875,4.015625 -6.96875,8.203125 0,4.1875 2.3125,8.21875 6.96875,8.21875 3.40625,0 4.8125,-2.171875 4.8125,-2.171875 h 0.15625 v 0.78125 c 0,2.78125 -0.96875,4.34375 -3.734375,4.34375 -3.09375,0 -3.25,-2.328125 -3.25,-2.328125 h -4.34375 c 0,0 0.15625,5.578125 7.59375,5.578125 5.59375,0 8.0625,-3.25 8.0625,-7.90625 z m -4.1875,7.75 c 0,2.609375 -1.234375,4.96875 -3.875,4.96875 -2.625,0 -3.875,-2.359375 -3.875,-4.96875 0,-2.59375 1.25,-4.953125 3.875,-4.953125 2.640625,0 3.875,2.359375 3.875,4.953125 z m 0,0"
           id="path155"
           inkscape:connector-curvature="0" />
      </symbol>
      <symbol
         overflow="visible"
         id="glyph2-17"
         style="overflow:visible">
        <path
           style="stroke:none"
           d="M 0.78125,0 H 5.109375 V -4.890625 L 6.875,-6.734375 10.96875,0 h 5.3125 L 9.890625,-9.828125 15.96875,-16.125 h -5.125 L 5.109375,-9.609375 V -16.125 H 0.78125 Z m 0,0"
           id="path158"
           inkscape:connector-curvature="0" />
      </symbol>
    </g>
  </defs>
  <path
     inkscape:connector-curvature="0"
     id="path635"
     d="m 165.63808,492.80469 -16.9179,44.65234 h 33.1992 z m -29.7656,78.74219 -10.8125,-4.07032 34.4727,-88.53515 h 12.3359 l 34.2188,88.55468 -11.5782,4.05079 -7.7539,-20.85938 -0.8945,-2.41797 h -41.2148 l -0.7618,2.03516 z m 0,0"
     style="fill:none;stroke:#FFFFFF;stroke-width:2;stroke-linecap:butt;stroke-linejoin:miter;stroke-miterlimit:10;stroke-opacity:1" />
  <path
     inkscape:connector-curvature="0"
     id="path637"
     d="m 218.69278,570.53125 v -91.58984 h 12.3399 l 47.8281,72 v -72 h 11.5742 v 91.58984 h -12.3359 l -47.8321,-72 v 72 z m 0,0"
     style="fill:none;stroke:#FFFFFF;stroke-width:2;stroke-linecap:butt;stroke-linejoin:miter;stroke-miterlimit:10;stroke-opacity:1" />
  <path
     inkscape:connector-curvature="0"
     id="path639"
     d="m 326.42718,557.375 18.2109,5.63281 15.8985,-4.625 5.7695,-12.11328 -2.5859,-8.1875 -8.1133,-5.69531 -26.668,-7.52344 -15.8633,-9.89453 -3.3164,-12.42578 10.1368,-19.89844 21.9062,-6.5664 24.7461,7.03906 8.4727,18.39453 -10.7461,4.14453 -6.1993,-14.07812 -15.7304,-5.125 -13.9571,3.57031 -6.664,11.74219 2.1562,6.59375 6.4492,4.40234 26.2852,7.82422 16.5938,8.62109 6.371,16.41406 -11.0117,21.03516 -23.3906,6.72656 -27.7305,-7.96093 -9.6367,-20.31641 10.6133,-4.54688 z m 0,0"
     style="fill:none;stroke:#FFFFFF;stroke-width:2;stroke-linecap:butt;stroke-linejoin:miter;stroke-miterlimit:10;stroke-opacity:1" />
  <path
     inkscape:connector-curvature="0"
     id="path641"
     d="M 268.26308,0.546876 V 267.00391 l 124.2539,198.42578 V 198.97266 Z m 0,0"
     style="fill:#FFFFFF;fill-opacity:1;fill-rule:nonzero;stroke:none" />
  <path
     inkscape:connector-curvature="0"
     id="path643"
     d="m 487.00528,40.79297 c -20.5039,36.83984 0.3633,97.45312 24.7657,142.61719 h -35.6563 c -27.8047,-55.85938 -36.4961,-109.34375 -22.293,-140.24219 h -82.0039 l -14.125,-26.148437 h 116.4688 z m 0,0"
     style="fill:#ffffff;fill-opacity:1;fill-rule:nonzero;stroke:#FFFFFF;stroke-width:2;stroke-linecap:butt;stroke-linejoin:miter;stroke-miterlimit:10;stroke-opacity:1" />
  <path
     inkscape:connector-curvature="0"
     id="path645"
     d="m 587.61858,265.33984 h -84.3125 l -8.1601,46.23438 h 1.3593 c 0,0 12.2383,-16.31641 38.0782,-16.31641 42.1562,0 62.5546,29.91407 62.5546,66.63282 0,40.79687 -27.1953,67.99609 -70.7148,67.99609 -42.1563,0 -72.0742,-24.48047 -72.0742,-61.19531 h 38.0781 c 0,20.39843 13.5977,32.63672 33.9961,32.63672 19.0391,0 32.6367,-13.59766 32.6367,-39.4375 0,-25.83594 -13.5976,-39.4375 -35.3555,-39.4375 -23.121,0 -32.6367,19.04296 -32.6367,19.04296 h -34 l 19.043,-106.07421 h 111.5078 z m 0,0"
     style="fill:#ffffff;fill-opacity:1;fill-rule:nonzero;stroke:#FFFFFF;stroke-width:2;stroke-linecap:butt;stroke-linejoin:miter;stroke-miterlimit:10;stroke-opacity:1" />
  <path
     inkscape:connector-curvature="0"
     id="path647"
     d="m 152.28658,282.39063 c 48.4883,6.46875 95.2148,47.72265 120.0156,94.30859 24.8047,46.58594 18.2227,80.72266 -30.2656,74.25391 -48.4922,-6.47266 -95.2149,-47.72657 -120.0196,-94.3125 -24.804598,-46.58204 -18.2187,-80.72266 30.2696,-74.25 m 72.6172,136.3789 c 25.2343,3.36719 23.0429,-18.55859 7.7031,-47.37109 -15.3399,-28.8086 -37.9492,-53.46094 -63.1875,-56.83203 -25.2344,-3.36719 -23.043,18.5625 -7.7031,47.37109 15.3398,28.8125 37.9492,53.46484 63.1875,56.83203"
     style="fill:#ffffff;fill-opacity:1;fill-rule:nonzero;stroke:#FFFFFF;stroke-width:2;stroke-linecap:butt;stroke-linejoin:miter;stroke-miterlimit:10;stroke-opacity:1" />
  <path
     inkscape:connector-curvature="0"
     id="path649"
     d="m 196.91158,66.91406 h -84.3125 l -8.1602,46.23438 h 1.3594 c 0,0 12.2383,-16.31641 38.0781,-16.31641 42.1563,0 62.5547,29.91406 62.5547,66.63672 0,40.79297 -27.1953,67.99609 -70.7109,67.99609 -42.160198,0 -72.078098,-24.48046 -72.078098,-61.19921 h 38.078098 c 0,20.39843 13.5976,32.63671 34,32.63671 19.0351,0 32.6328,-13.59765 32.6328,-39.43359 0,-25.83594 -13.5977,-39.44141 -35.3555,-39.44141 -23.1172,0 -32.6367,19.04297 -32.6367,19.04297 H 66.360782 L 85.403782,36.9961 H 196.91158 Z m 0,0"
     style="fill:#ffffff;fill-opacity:1;fill-rule:nonzero;stroke:#FFFFFF;stroke-width:2;stroke-linecap:butt;stroke-linejoin:miter;stroke-miterlimit:10;stroke-opacity:1" />
  <path
     inkscape:connector-curvature="0"
     id="path651"
     d="M 658.97018,465.88281 H 392.51698 V 199.42578 h 266.4532 z m 0,0"
     style="fill:none;stroke:#FFFFFF;stroke-width:2;stroke-linecap:butt;stroke-linejoin:miter;stroke-miterlimit:4;stroke-opacity:1" />
  <path
     inkscape:connector-curvature="0"
     id="path653"
     d="M 268.26308,267.45703 H 1.8060816 V 1 H 268.26308 Z m 0,0"
     style="fill:none;stroke:#FFFFFF;stroke-width:2;stroke-linecap:butt;stroke-linejoin:miter;stroke-miterlimit:4;stroke-opacity:1" />
  <path
     inkscape:connector-curvature="0"
     id="path655"
     d="M 658.97018,199.42578 H 392.51698 L 268.26308,1 h 266.4571 z m 0,0"
     style="fill:none;stroke:#FFFFFF;stroke-width:2;stroke-linecap:butt;stroke-linejoin:miter;stroke-miterlimit:4;stroke-opacity:1" />
  <path
     inkscape:connector-curvature="0"
     id="path657"
     d="m 392.51698,465.88281 h -266.457 L 1.8060816,267.45703 H 268.26308 Z m 0,0"
     style="fill:none;stroke:#FFFFFF;stroke-width:2;stroke-linecap:butt;stroke-linejoin:miter;stroke-miterlimit:4;stroke-opacity:1" />
  <path
     inkscape:connector-curvature="0"
     id="path785"
     d="M 658.97018,732.33985 H 392.51698 V 465.88281 h 266.4532 z m 0,0"
     style="fill:none;stroke:#FFFFFF;stroke-width:2;stroke-linecap:butt;stroke-linejoin:miter;stroke-miterlimit:10;stroke-opacity:1" />
  <g
     id="g789"
     style="fill:#FFFFFF;fill-opacity:1"
     transform="translate(-3981.2642,-67.01953)">
    <use
       height="100%"
       width="100%"
       id="use787"
       y="610.30542"
       x="4387.0977"
       xlink:href="#glyph0-1" />
  </g>
  <g
     id="g801"
     style="fill:#FFFFFF;fill-opacity:1"
     transform="translate(-3981.2642,-67.01953)">
    <use
       height="100%"
       width="100%"
       id="use791"
       y="610.30542"
       x="4411.5122"
       xlink:href="#glyph0-2" />
    <use
       height="100%"
       width="100%"
       id="use793"
       y="610.30542"
       x="4438.7886"
       xlink:href="#glyph0-3" />
    <use
       height="100%"
       width="100%"
       id="use795"
       y="610.30542"
       x="4467.9595"
       xlink:href="#glyph0-4" />
    <use
       height="100%"
       width="100%"
       id="use797"
       y="610.30542"
       x="4490.5532"
       xlink:href="#glyph0-5" />
    <use
       height="100%"
       width="100%"
       id="use799"
       y="610.30542"
       x="4514.9678"
       xlink:href="#glyph0-6" />
  </g>
  <g
     id="g825"
     style="fill:#FFFFFF;fill-opacity:1"
     transform="translate(-3981.2642,-67.01953)">
    <use
       height="100%"
       width="100%"
       id="use803"
       y="654.89838"
       x="4387.0977"
       xlink:href="#glyph0-7" />
    <use
       height="100%"
       width="100%"
       id="use805"
       y="654.89838"
       x="4411.8096"
       xlink:href="#glyph0-8" />
    <use
       height="100%"
       width="100%"
       id="use807"
       y="654.89838"
       x="4438.6768"
       xlink:href="#glyph0-9" />
    <use
       height="100%"
       width="100%"
       id="use809"
       y="654.89838"
       x="4463.0913"
       xlink:href="#glyph0-1" />
    <use
       height="100%"
       width="100%"
       id="use811"
       y="654.89838"
       x="4487.5063"
       xlink:href="#glyph0-10" />
    <use
       height="100%"
       width="100%"
       id="use813"
       y="654.89838"
       x="4512.8872"
       xlink:href="#glyph0-11" />
    <use
       height="100%"
       width="100%"
       id="use815"
       y="654.89838"
       x="4522.3628"
       xlink:href="#glyph0-5" />
    <use
       height="100%"
       width="100%"
       id="use817"
       y="654.89838"
       x="4546.7778"
       xlink:href="#glyph0-8" />
    <use
       height="100%"
       width="100%"
       id="use819"
       y="654.89838"
       x="4573.645"
       xlink:href="#glyph0-10" />
    <use
       height="100%"
       width="100%"
       id="use821"
       y="654.89838"
       x="4599.0259"
       xlink:href="#glyph0-5" />
    <use
       height="100%"
       width="100%"
       id="use823"
       y="654.89838"
       x="4623.4404"
       xlink:href="#glyph0-6" />
  </g>
  <g
     id="g845"
     style="fill:#FFFFFF;fill-opacity:1"
     transform="translate(-3981.2642,-67.01953)">
    <use
       height="100%"
       width="100%"
       id="use827"
       y="699.49133"
       x="4387.0977"
       xlink:href="#glyph0-12" />
    <use
       height="100%"
       width="100%"
       id="use829"
       y="699.49133"
       x="4413.4448"
       xlink:href="#glyph0-5" />
    <use
       height="100%"
       width="100%"
       id="use831"
       y="699.49133"
       x="4437.8594"
       xlink:href="#glyph0-7" />
    <use
       height="100%"
       width="100%"
       id="use833"
       y="699.49133"
       x="4462.5713"
       xlink:href="#glyph0-6" />
    <use
       height="100%"
       width="100%"
       id="use835"
       y="699.49133"
       x="4472.9019"
       xlink:href="#glyph0-13" />
    <use
       height="100%"
       width="100%"
       id="use837"
       y="699.49133"
       x="4497.9854"
       xlink:href="#glyph0-10" />
    <use
       height="100%"
       width="100%"
       id="use839"
       y="699.49133"
       x="4523.3662"
       xlink:href="#glyph0-14" />
    <use
       height="100%"
       width="100%"
       id="use841"
       y="699.49133"
       x="4546.3687"
       xlink:href="#glyph0-7" />
    <use
       height="100%"
       width="100%"
       id="use843"
       y="699.49133"
       x="4571.0811"
       xlink:href="#glyph0-6" />
  </g>
  <g
     id="g867"
     style="fill:#FFFFFF;fill-opacity:1"
     transform="translate(-3981.2642,-67.01953)">
    <use
       height="100%"
       width="100%"
       id="use847"
       y="744.08429"
       x="4387.0977"
       xlink:href="#glyph0-12" />
    <use
       height="100%"
       width="100%"
       id="use849"
       y="744.08429"
       x="4413.4448"
       xlink:href="#glyph0-5" />
    <use
       height="100%"
       width="100%"
       id="use851"
       y="744.08429"
       x="4437.8594"
       xlink:href="#glyph0-6" />
    <use
       height="100%"
       width="100%"
       id="use853"
       y="744.08429"
       x="4448.1899"
       xlink:href="#glyph0-4" />
    <use
       height="100%"
       width="100%"
       id="use855"
       y="744.08429"
       x="4470.7837"
       xlink:href="#glyph0-15" />
    <use
       height="100%"
       width="100%"
       id="use857"
       y="744.08429"
       x="4479.9253"
       xlink:href="#glyph0-11" />
    <use
       height="100%"
       width="100%"
       id="use859"
       y="744.08429"
       x="4489.4014"
       xlink:href="#glyph0-16" />
    <use
       height="100%"
       width="100%"
       id="use861"
       y="744.08429"
       x="4521.4712"
       xlink:href="#glyph0-13" />
    <use
       height="100%"
       width="100%"
       id="use863"
       y="744.08429"
       x="4546.5547"
       xlink:href="#glyph0-17" />
    <use
       height="100%"
       width="100%"
       id="use865"
       y="744.08429"
       x="4574.7969"
       xlink:href="#glyph0-5" />
  </g>
</svg>
